{
  "bookingid": 873,
  "booking": {
    "firstname": "dev",
    "lastname": "Kumar",
    "totalprice": 4640,
    "depositpaid": true,
    "bookingdates": {
      "checkin": "2024-01-01",
      "checkout": "2024-02-01"
    },
    "additionalneeds": "Dinner"
  }
}